^C:\USERS\USER\DOCUMENTS\GIT REPOSITORIES\14.3\14.3\DEBUG\14.3.OBJ
C:\USERS\USER\DOCUMENTS\GIT REPOSITORIES\14.3\14.3\DEBUG\14.3.EXE
C:\USERS\USER\DOCUMENTS\GIT REPOSITORIES\14.3\14.3\DEBUG\14.3.ILK
C:\USERS\USER\DOCUMENTS\GIT REPOSITORIES\14.3\14.3\DEBUG\14.3.PDB
